server:
  port: 8080

user:
  json1: |
    {
      "results": [
        {
          "gender": "female",
          "name": { "title": "Ms", "first": "Katja", "last": "Hillmann" },
          "location": {
            "street": { "number": 8884, "name": "Wiesenstraße" },
            "city": "Pottenstein",
            "state": "Sachsen",
            "country": "Germany",
            "postcode": 31247,
            "coordinates": { "latitude": "-54.3104", "longitude": "75.6855" },
            "timezone": { "offset": "-1:00", "description": "Azores, Cape Verde Islands" }
          },
          "email": "katja.hillmann@example.com",
          "login": {
            "uuid": "85d6efbc-3d42-40b3-a464-b195c488c48d",
            "username": "goldenpanda210",
            "password": "grizzly"
          },
          "picture": {
            "large": "https://randomuser.me/api/portraits/women/77.jpg",
            "medium": "https://randomuser.me/api/portraits/med/women/77.jpg",
            "thumbnail": "https://randomuser.me/api/portraits/thumb/women/77.jpg"
          }
        },
        {
          "gender": "male",
          "name": { "title": "Mr", "first": "Liam", "last": "Anderson" },
          "location": {
            "street": { "number": 1234, "name": "Maple Street" },
            "city": "Toronto",
            "state": "Ontario",
            "country": "Canada",
            "postcode": "M5G 2C3",
            "coordinates": { "latitude": "43.6532", "longitude": "-79.3832" },
            "timezone": { "offset": "-5:00", "description": "Eastern Time (US & Canada)" }
          },
          "email": "liam.anderson@example.com",
          "login": {
            "uuid": "5a6b8cde-2f30-4c11-a36c-947c7d3b9f80",
            "username": "liamtoronto",
            "password": "password123"
          },
          "picture": {
            "large": "https://randomuser.me/api/portraits/men/45.jpg",
            "medium": "https://randomuser.me/api/portraits/med/men/45.jpg",
            "thumbnail": "https://randomuser.me/api/portraits/thumb/men/45.jpg"
          }
        },
        {
          "gender": "female",
          "name": { "title": "Mrs", "first": "Sophie", "last": "Dubois" },
          "location": {
            "street": { "number": 5678, "name": "Rue de la Paix" },
            "city": "Paris",
            "state": "Île-de-France",
            "country": "France",
            "postcode": 75001,
            "coordinates": { "latitude": "48.8566", "longitude": "2.3522" },
            "timezone": { "offset": "+1:00", "description": "Central European Time" }
          },
          "email": "sophie.dubois@example.com",
          "login": {
            "uuid": "7c2e5f3a-08d4-4c99-97ec-61a3f897b7d6",
            "username": "sophieparis",
            "password": "bonjour123"
          },
          "picture": {
            "large": "https://randomuser.me/api/portraits/women/35.jpg",
            "medium": "https://randomuser.me/api/portraits/med/women/35.jpg",
            "thumbnail": "https://randomuser.me/api/portraits/thumb/women/35.jpg"
          }
        }
      ],
      "info": { "seed": "fa84b87fe3cc5250", "results": 3, "page": 1, "version": "1.4" }
    }
  json2: |
    {
        "page": 1,
        "per_page": 6,
        "total": 12,
        "total_pages": 2,
        "data": [
            {
                "id": 1,
                "email": "george.bluth@reqres.in",
                "first_name": "George",
                "last_name": "Bluth",
                "avatar": "https://reqres.in/img/faces/1-image.jpg"
            },
            {
                "id": 2,
                "email": "janet.weaver@reqres.in",
                "first_name": "Janet",
                "last_name": "Weaver",
                "avatar": "https://reqres.in/img/faces/2-image.jpg"
            },
            {
                "id": 3,
                "email": "emma.wong@reqres.in",
                "first_name": "Emma",
                "last_name": "Wong",
                "avatar": "https://reqres.in/img/faces/3-image.jpg"
            },
            {
                "id": 4,
                "email": "eve.holt@reqres.in",
                "first_name": "Eve",
                "last_name": "Holt",
                "avatar": "https://reqres.in/img/faces/4-image.jpg"
            },
            {
                "id": 5,
                "email": "charles.morris@reqres.in",
                "first_name": "Charles",
                "last_name": "Morris",
                "avatar": "https://reqres.in/img/faces/5-image.jpg"
            },
            {
                "id": 6,
                "email": "tracey.ramos@reqres.in",
                "first_name": "Tracey",
                "last_name": "Ramos",
                "avatar": "https://reqres.in/img/faces/6-image.jpg"
            }
        ],
        "support": {
            "url": "https://contentcaddy.io?utm_source=reqres&utm_medium=json&utm_campaign=referral",
            "text": "Tired of writing endless social media content? Let Content Caddy generate it for you."
        }
    }
